{
  "index": "/index.html",
  "assetGroups": [
    {
      "name": "ilmari",
      "installMode": "prefetch",
      "resources": {
        "files": [
          "/manifest.json",
          "/favicon.ico",
          "/index.html",
          "/user/login/index.html"
        ],
        "versionedFiles": [
          "/*.bundle.css",
          "/*.bundle.js",
          "/*.chunk.js"
        ],
        "urls": [
          "https://fonts.googleapis.com/**"
        ]
      }
    },
    {
      "name": "assets",
      "installMode": "lazy",
      "updateMode": "prefetch",
      "resources": {
        "files": [
          "/assets/**"
        ]
      }
    }
  ],
  "dataGroups": [
    {
      "name": "ignore",
      "urls": [
        "/user/login"
      ],
      "cacheConfig": {
        "maxSize": 0,
        "maxAge": "0u",
        "strategy": "freshness"
      }
    }
  ]
}
